<?xml version="1.0" encoding="UTF-8"?>
<model ref="r:5abdd903-598a-4f28-afd7-38c1105ed622(org.campagnelab.book.diagrams2.structure)">
  <persistence version="9" />
  <languages>
    <use id="c72da2b9-7cce-4447-8389-f407dc1158b7" name="jetbrains.mps.lang.structure" version="-1" />
    <devkit ref="fbc25dd2-5da4-483a-8b19-70928e1b62d7(jetbrains.mps.devkit.general-purpose)" />
  </languages>
  <imports>
    <import index="tpck" ref="r:00000000-0000-4000-0000-011c89590288(jetbrains.mps.lang.core.structure)" implicit="true" />
  </imports>
  <registry>
    <language id="c72da2b9-7cce-4447-8389-f407dc1158b7" name="jetbrains.mps.lang.structure">
      <concept id="1169125787135" name="jetbrains.mps.lang.structure.structure.AbstractConceptDeclaration" flags="ig" index="PkWjJ">
        <property id="5092175715804935370" name="conceptAlias" index="34LRSv" />
        <child id="1071489727083" name="linkDeclaration" index="1TKVEi" />
        <child id="1071489727084" name="propertyDeclaration" index="1TKVEl" />
      </concept>
      <concept id="1169127622168" name="jetbrains.mps.lang.structure.structure.InterfaceConceptReference" flags="ig" index="PrWs8">
        <reference id="1169127628841" name="intfc" index="PrY4T" />
      </concept>
      <concept id="1071489090640" name="jetbrains.mps.lang.structure.structure.ConceptDeclaration" flags="ig" index="1TIwiD">
        <property id="1096454100552" name="rootable" index="19KtqR" />
        <reference id="1071489389519" name="extends" index="1TJDcQ" />
        <child id="1169129564478" name="implements" index="PzmwI" />
      </concept>
      <concept id="1071489288299" name="jetbrains.mps.lang.structure.structure.PropertyDeclaration" flags="ig" index="1TJgyi">
        <reference id="1082985295845" name="dataType" index="AX2Wp" />
      </concept>
      <concept id="1071489288298" name="jetbrains.mps.lang.structure.structure.LinkDeclaration" flags="ig" index="1TJgyj">
        <property id="1071599776563" name="role" index="20kJfa" />
        <property id="1071599893252" name="sourceCardinality" index="20lbJX" />
        <property id="1071599937831" name="metaClass" index="20lmBu" />
        <reference id="1071599976176" name="target" index="20lvS9" />
      </concept>
    </language>
    <language id="ceab5195-25ea-4f22-9b92-103b95ca8c0c" name="jetbrains.mps.lang.core">
      <concept id="1169194658468" name="jetbrains.mps.lang.core.structure.INamedConcept" flags="ng" index="TrEIO">
        <property id="1169194664001" name="name" index="TrG5h" />
      </concept>
    </language>
  </registry>
  <node concept="1TIwiD" id="5$vcisXIvps">
    <property role="TrG5h" value="Node" />
    <ref role="1TJDcQ" to="tpck:gw2VY9q" resolve="BaseConcept" />
    <node concept="1TJgyj" id="5$vcisXIvTk" role="1TKVEi">
      <property role="20lmBu" value="aggregation" />
      <property role="20kJfa" value="inputs" />
      <property role="20lbJX" value="1..n" />
      <ref role="20lvS9" node="5$vcisXIvTo" resolve="InputPort" />
    </node>
    <node concept="1TJgyj" id="5$vcisXIvTu" role="1TKVEi">
      <property role="20lmBu" value="aggregation" />
      <property role="20kJfa" value="outputs" />
      <property role="20lbJX" value="1..n" />
      <ref role="20lvS9" node="5$vcisXIvTr" resolve="OutputPort" />
    </node>
    <node concept="1TJgyi" id="5$vcisXIvBC" role="1TKVEl">
      <property role="TrG5h" value="x" />
      <ref role="AX2Wp" to="tpck:fKAQMTA" resolve="integer" />
    </node>
    <node concept="1TJgyi" id="5$vcisXIvBE" role="1TKVEl">
      <property role="TrG5h" value="y" />
      <ref role="AX2Wp" to="tpck:fKAQMTA" resolve="integer" />
    </node>
    <node concept="PrWs8" id="5$vcisXIvqq" role="PzmwI">
      <ref role="PrY4T" to="tpck:h0TrEE$" resolve="INamedConcept" />
    </node>
  </node>
  <node concept="1TIwiD" id="5$vcisXIvqk">
    <property role="TrG5h" value="Edge" />
    <ref role="1TJDcQ" to="tpck:gw2VY9q" resolve="BaseConcept" />
    <node concept="1TJgyi" id="2dy6Wl72x0U" role="1TKVEl">
      <property role="TrG5h" value="destinationPortIndex" />
      <ref role="AX2Wp" to="tpck:fKAQMTA" resolve="integer" />
    </node>
    <node concept="1TJgyi" id="2dy6Wl72x0$" role="1TKVEl">
      <property role="TrG5h" value="sourcePortIndex" />
      <ref role="AX2Wp" to="tpck:fKAQMTA" resolve="integer" />
    </node>
    <node concept="1TJgyj" id="5$vcisXIvql" role="1TKVEi">
      <property role="20lmBu" value="reference" />
      <property role="20kJfa" value="source" />
      <ref role="20lvS9" node="5$vcisXIvps" resolve="Node" />
    </node>
    <node concept="1TJgyj" id="5$vcisXIvqn" role="1TKVEi">
      <property role="20lmBu" value="reference" />
      <property role="20kJfa" value="destination" />
      <ref role="20lvS9" node="5$vcisXIvps" resolve="Node" />
    </node>
  </node>
  <node concept="1TIwiD" id="5$vcisXIvTo">
    <property role="TrG5h" value="InputPort" />
    <ref role="1TJDcQ" to="tpck:gw2VY9q" resolve="BaseConcept" />
  </node>
  <node concept="1TIwiD" id="5$vcisXIvTr">
    <property role="TrG5h" value="OutputPort" />
    <ref role="1TJDcQ" to="tpck:gw2VY9q" resolve="BaseConcept" />
  </node>
  <node concept="1TIwiD" id="2dy6Wl6THg9">
    <property role="TrG5h" value="Project" />
    <property role="34LRSv" value="project" />
    <property role="19KtqR" value="true" />
    <ref role="1TJDcQ" to="tpck:gw2VY9q" resolve="BaseConcept" />
    <node concept="1TJgyj" id="2dy6Wl6THyH" role="1TKVEi">
      <property role="20lmBu" value="aggregation" />
      <property role="20kJfa" value="nodes" />
      <property role="20lbJX" value="0..n" />
      <ref role="20lvS9" node="5$vcisXIvps" resolve="Node" />
    </node>
    <node concept="1TJgyj" id="2dy6Wl6THyJ" role="1TKVEi">
      <property role="20lmBu" value="aggregation" />
      <property role="20kJfa" value="edges" />
      <property role="20lbJX" value="0..n" />
      <ref role="20lvS9" node="5$vcisXIvqk" resolve="Edge" />
    </node>
  </node>
</model>

