<?xml version="1.0" encoding="UTF-8"?>
<model ref="r:add09de4-62b3-4e1f-b6e2-ff3923764647(org.campagnelab.book.diagrams2.typesystem)">
  <persistence version="9" />
  <languages>
    <use id="7a5dda62-9140-4668-ab76-d5ed1746f2b2" name="jetbrains.mps.lang.typesystem" version="-1" />
    <devkit ref="fbc25dd2-5da4-483a-8b19-70928e1b62d7(jetbrains.mps.devkit.general-purpose)" />
  </languages>
  <imports />
  <registry />
</model>

